Capítulo 2 Preparação dos dados | Estatística e Ciência de Dados
…
Solução. Conforme especificação enunciada, criamos o arquivo esforco.csv que poderá ser carregado da seguinte maneira:

(esforco <- read_csv(paste0(data_dir, "esforco.csv")))

## Rows: 127 Columns: 8
## ── Column specification ────────────────────────────────────────────────────────
## Delimiter: ","
## chr (1): obito
## dbl (7): id, idade, altura, peso, fc_repouso, vo2_repouco, ve_vo2_pico
## 
## ℹ Use `spec()` to retrieve the full column specification for this data.
## ℹ Specify the column types or set `show_col_types = FALSE` to quiet this message.

## # A tibble: 127 × 8
##       id idade altura  peso fc_repouso vo2_repouco ve_vo2_pico obito     
##    <dbl> <dbl>  <dbl> <dbl>      <dbl>       <dbl>       <dbl> <chr>     
##  1     1    38    149    54         89         5.9        65.6 26/07/1991
##  2     2    49    167    80         69         3.4        37.3 30/07/1995
##  3     3    65    153    56         82         3          59.7 21/08/1993
##  4     4    52    175    78         89         3.8        52.4 14/11/1992
##  5     5    52    157    59         82         3.2        48.8 30/07/1994
##  6     6    58    150    62         75         3.8        54.1 Não       
##  7     7    24    155    42         89         3.5       102.  17/10/1991
##  8     8    39    149    55         91         3.9        67.8 31/08/1992
##  9     9    48    160    77        101         2.5        59.5 Não       
## 10    10    50    171    81        120         3          47.8 Não       
## # ℹ 117 more rows
…
